Analise temporal
…
## 
## Attaching package: 'nlme'

## The following object is masked from 'package:dplyr':
## 
##     collapse

library (agricolae)

Com base nos dados disponibilizados para cada grupo, que consistem em avaliaes de intensidade de doena o tempo, execute os seguintes passos para analisar os dados: carregamento dos dados:

dat1<- read_excel("Dados (2).xlsx")
dat1

## # A tibble: 72 x 4
##    cultivar     r     t     y
##    <chr>    <dbl> <dbl> <dbl>
##  1 Magaly       1     0  0.95
##  2 Magaly       2     0  0.86
##  3 Magaly       3     0  0.91
##  4 Magaly       1     7  2.92
##  5 Magaly       2     7  5.67
##  6 Magaly       3     7  4.3 
##  7 Magaly       1    14  6.4 
##  8 Magaly       2    14  5.67
##  9 Magaly       3    14  4.7 
## 10 Magaly       1    21  7.16
## # ... with 62 more rows

Questo 1

Considerando o valor mdio de severidade (y) nas repeties, represente graficamente o progresso da doena de duas diferentes formas: a severidade mdia da doena no tempo e a taxa absoluta no tempo. Faa um grfico de disperso de pontos conectados por linhas.

Clculo do valor mdio da severidade x tempo

dat2<-dat1 %>% 
  group_by(cultivar,t) %>%
  dplyr:: summarise(s=mean(y)) 
dat2

## # A tibble: 24 x 3
## # Groups:   cultivar [3]
##    cultivar     t      s
##    <chr>    <dbl>  <dbl>
##  1 Amanda       0  3.82 
##  2 Amanda       7 13.6  
##  3 Amanda      14 21.4  
##  4 Amanda      21 40.9  
##  5 Amanda      28 70.3  
##  6 Amanda      42 81.2  
##  7 Amanda      63 93.2  
##  8 Amanda     112 94.7  
##  9 Magaly       0  0.907
## 10 Magaly       7  4.30 
## # ... with 14 more rows
…
 dat2 

## # A tibble: 24 x 3
## # Groups:   cultivar [3]
##    cultivar     t      s
##    <chr>    <dbl>  <dbl>
##  1 Amanda       0  3.82 
##  2 Amanda       7 13.6  
##  3 Amanda      14 21.4  
##  4 Amanda      21 40.9  
##  5 Amanda      28 70.3  
##  6 Amanda      42 81.2  
##  7 Amanda      63 93.2  
##  8 Amanda     112 94.7  
##  9 Magaly       0  0.907
## 10 Magaly       7  4.30 
## # ... with 14 more rows
…
